{"Parent's Name:": "JAYASIMHA VARADARAJAN", "International Rank:": "    72", "Student Name:": "RITHWIK JAYASIMHA", "School Name:": "DELHI PUBLIC SCHOOLSY. NO. 43/1B & 45, SULIKUNTE VILLAGE, DOMMASANDRABANGALOREKARNATAKA", "Roll No.:": "KA0466-10-071", "Marks Scored:": "41/60", "Class:": "10", "International Award Won:": "N.A.", "State Rank:": "     5", "State Award Won:": "Gifts Worth Rs 1,000/- + Merit Certificate"}
{"Parent's Name:": "GOVINDA RAJIN N", "International Rank:": "   555", "Student Name:": "RUCHIKA RAJ", "School Name:": "DELHI PUBLIC SCHOOLSY. NO. 43/1B & 45, SULIKUNTE VILLAGE, DOMMASANDRABANGALOREKARNATAKA", "Roll No.:": "KA0466-10-073", "Marks Scored:": "29/60", "Class:": "10", "International Award Won:": "N.A.", "State Rank:": "    42", "State Award Won:": "N.A."}
{"Parent's Name:": "T K MATHUR", "International Rank:": "ABSENT", "Student Name:": "PARMESH KUMAR MATHUR", "School Name:": "DELHI PUBLIC SCHOOLSY. NO. 43/1B & 45, SULIKUNTE VILLAGE, DOMMASANDRABANGALOREKARNATAKA", "Roll No.:": "KA0466-10-095", "Marks Scored:": "AB", "Class:": "10", "International Award Won:": "N.A.", "State Rank:": "  N.A.", "State Award Won:": "N.A."}
